DATA 607 Final Project - Drug Reviews Sentiment Analysis and Safety Profiles
…
n_oc_reviews <-nrow(oc_reviews) #Number of reviews of birth control

oc_reviews %>%
  group_by(drugName) %>%
  count() %>%
  mutate(pct_reviews = round((100*n/n_oc_reviews),1)) %>% #Percent of all birth control reviews
  arrange(desc(n)) #Highest frequency first

## # A tibble: 172 x 3
## # Groups:   drugName [172]
##    drugName                               n pct_reviews
##    <fct>                              <int>       <dbl>
##  1 Etonogestrel                        3314        11.5
##  2 Ethinyl estradiol / norethindrone   2337         8.1
##  3 Nexplanon                           2149         7.5
##  4 Levonorgestrel                      2129         7.4
##  5 Ethinyl estradiol / levonorgestrel  1600         5.6
##  6 Ethinyl estradiol / norgestimate    1580         5.5
##  7 Implanon                            1095         3.8
##  8 Mirena                               965         3.4
##  9 Skyla                                822         2.9
## 10 Lo Loestrin Fe                       667         2.3
## # ... with 162 more rows
…
There appear to be many poorly rated birth control products, likely related to some sort of intolerable effect or treatment failure. Ill take a look at these reviews specifically, with rating of 1 out of ten.

oc_reviews_bad <- oc_reviews %>%
  filter(rating == 1) %>% #Looking closer at the anomaly with rating '1'
  group_by(drugName) %>%
  count() %>%
  mutate(pct_reviews = round((100*n/n_oc_reviews),1)) %>% #As percent of total reviews
  arrange(desc(n)) 

oc_reviews_bad

## # A tibble: 133 x 3
## # Groups:   drugName [133]
##    drugName                               n pct_reviews
##    <fct>                              <int>       <dbl>
##  1 Etonogestrel                         524         1.8
##  2 Ethinyl estradiol / norethindrone    467         1.6
##  3 Nexplanon                            366         1.3
##  4 Ethinyl estradiol / norgestimate     252         0.9
##  5 Ethinyl estradiol / levonorgestrel   239         0.8
##  6 Levonorgestrel                       199         0.7
##  7 Implanon                             152         0.5
##  8 Medroxyprogesterone                  119         0.4
##  9 Depo-Provera                         116         0.4
## 10 Mirena                               111         0.4
## # ... with 123 more rows
…
## Warning in `==.default`(condition, c("Depression", "Insomnia", "Anxiety", :
## longer object length is not a multiple of shorter object length

## Warning in is.na(e1) | is.na(e2): longer object length is not a multiple of
## shorter object length

n_ad_reviews <- nrow(ad_reviews) #number of reviews for depression/ anxiety meds

ad_reviews %>%
  group_by(drugName) %>%
  count() %>%
  mutate(pct_reviews = round((100*n/n_ad_reviews),1)) %>% #Percent of all ax/dep reviews
  arrange(desc(n)) #Highest first

## # A tibble: 153 x 3
## # Groups:   drugName [153]
##    drugName         n pct_reviews
##    <fct>        <int>       <dbl>
##  1 Escitalopram   145         4.4
##  2 Sertraline     129         3.9
##  3 Citalopram     127         3.8
##  4 Bupropion      104         3.1
##  5 Fluoxetine     101         3.1
##  6 Lexapro        101         3.1
##  7 Venlafaxine     99         3  
##  8 Pristiq         82         2.5
##  9 Cymbalta        81         2.5
## 10 Mirtazapine     80         2.4
## # ... with 143 more rows
…
The bar plot follows the overall pattern of relatively good marks, with an uptick in the lowest score. It appears that theres no set pattern in the ratings, so Ill take a quick look at the differences in ratings of 1 versus 10.

ad_reviews_bad <- ad_reviews %>%
  filter(rating == 1) %>% #Worst ratings
  group_by(drugName) %>%
  count() %>%
  mutate(pct_reviews = round((100*n/n_ad_reviews),1)) %>% #Percent of total ratings
  arrange(desc(n)) #Most frequently given first

ad_reviews_bad

## # A tibble: 76 x 3
## # Groups:   drugName [76]
##    drugName         n pct_reviews
##    <fct>        <int>       <dbl>
##  1 Venlafaxine     19         0.6
##  2 Buspirone       18         0.5
##  3 Belsomra        18         0.5
##  4 Bupropion       15         0.5
##  5 Cymbalta        15         0.5
##  6 Duloxetine      15         0.5
##  7 Sertraline      14         0.4
##  8 Escitalopram    14         0.4
##  9 Suvorexant      13         0.4
## 10 Prozac          12         0.4
## # ... with 66 more rows

ad_reviews_good <- ad_reviews %>% 
  filter(rating == 10) %>% #Best ratings
  group_by(drugName) %>%
  count() %>%
  mutate(pct_reviews = round((100*n/n_ad_reviews),1)) %>% #Perecnt of total ratings
  arrange(desc(n)) #Most frequently first

ad_reviews_good

## # A tibble: 117 x 3
## # Groups:   drugName [117]
##    drugName         n pct_reviews
##    <fct>        <int>       <dbl>
##  1 Escitalopram    58         1.8
##  2 Alprazolam      53         1.6
##  3 Clonazepam      39         1.2
##  4 Xanax           37         1.1
##  5 Bupropion       35         1.1
##  6 Citalopram      35         1.1
##  7 Sertraline      31         0.9
##  8 Venlafaxine     28         0.8
##  9 Fluoxetine      28         0.8
## 10 Lexapro         28         0.8
## # ... with 107 more rows

Some especially badly rated medications include venlafaxine, buspirone, and Belsomra, while the highest rated include the antidepressants escitalopram and bupropion, as well as the sedatives alprazolam (also Xanax) and clonazepam. For one last look at the medications used for anxiety and depression, Im going to omit insmonia, as this may be weighing the ratings too heavily in favor of one class of sedatives.

ad_reviews_wo_insomnia <- ad_reviews %>%
  filter(condition != 'Insomnia') #Omit treatment for insomnia

n_ad_reviews_wo_insomnia <-nrow(ad_reviews_wo_insomnia) #Number of reviews for anxiety and depression, not insomnia

ad_reviews_wo_insomnia %>%
  group_by(drugName) %>%
  count() %>%
  mutate(pct_reviews = round((100*n/n_ad_reviews_wo_insomnia),1)) %>% #Percent of reviews
  arrange(desc(n)) #Most frequent first

## # A tibble: 115 x 3
## # Groups:   drugName [115]
##    drugName         n pct_reviews
##    <fct>        <int>       <dbl>
##  1 Escitalopram   145         5.4
##  2 Sertraline     129         4.8
##  3 Citalopram     127         4.7
##  4 Bupropion      104         3.9
##  5 Fluoxetine     101         3.7
##  6 Lexapro        101         3.7
##  7 Venlafaxine     99         3.7
##  8 Pristiq         82         3  
##  9 Cymbalta        81         3  
## 10 Alprazolam      79         2.9
## # ... with 105 more rows

ad_reviews_wo_insomnia_bad <- ad_reviews_wo_insomnia %>%
  filter(rating == 1) %>% #Worst ratings
  group_by(drugName) %>%
  count() %>%
  mutate(pct_reviews = round((100*n/n_ad_reviews_wo_insomnia),1)) %>% #Percent of reviews 
  arrange(desc(n)) #Most frequent first

ad_reviews_wo_insomnia_bad

## # A tibble: 55 x 3
## # Groups:   drugName [55]
##    drugName         n pct_reviews
##    <fct>        <int>       <dbl>
##  1 Venlafaxine     19         0.7
##  2 Buspirone       18         0.7
##  3 Bupropion       15         0.6
##  4 Cymbalta        15         0.6
##  5 Duloxetine      15         0.6
##  6 Sertraline      14         0.5
##  7 Escitalopram    14         0.5
##  8 Prozac          12         0.4
##  9 Vilazodone      11         0.4
## 10 Lexapro         10         0.4
## # ... with 45 more rows

ad_reviews_wo_insomnia_good <- ad_reviews_wo_insomnia %>%
  filter(rating == 10) %>% #Best ratings
  group_by(drugName) %>%
  count() %>%
  mutate(pct_reviews = round((100*n/n_ad_reviews_wo_insomnia),1)) %>% #Percent of reviews
  arrange(desc(n)) #Most frequent first

ad_reviews_wo_insomnia_good

## # A tibble: 91 x 3
## # Groups:   drugName [91]
##    drugName         n pct_reviews
##    <fct>        <int>       <dbl>
##  1 Escitalopram    58         2.2
##  2 Alprazolam      53         2  
##  3 Xanax           37         1.4
##  4 Bupropion       35         1.3
##  5 Citalopram      35         1.3
##  6 Clonazepam      34         1.3
##  7 Sertraline      31         1.1
##  8 Venlafaxine     28         1  
##  9 Fluoxetine      28         1  
## 10 Lexapro         28         1  
## # ... with 81 more rows
…
wl_reviews %>%
  group_by(drugName) %>%
  count() %>%
  mutate(pct_reviews = round((100*n/n_wl_reviews),1)) %>%
  arrange(desc(n))

## # A tibble: 21 x 3
## # Groups:   drugName [21]
##    drugName                     n pct_reviews
##    <fct>                    <int>       <dbl>
##  1 Phentermine               1211        33.6
##  2 Lorcaserin                 387        10.7
##  3 Belviq                     381        10.6
##  4 Bupropion / naltrexone     267         7.4
##  5 Contrave                   263         7.3
##  6 Adipex-P                   255         7.1
##  7 Phentermine / topiramate   249         6.9
##  8 Qsymia                     207         5.7
##  9 Liraglutide                166         4.6
## 10 Saxenda                     95         2.6
## # ... with 11 more rows
…
library(wordcloud)

## Warning: package 'wordcloud' was built under R version 3.6.3

## Loading required package: RColorBrewer

sentiword <- hash_sentiment_sentiword

names(sentiword)[names(sentiword) == "x"] <- "word"
names(sentiword)[names(sentiword) == "y"] <- "score"

get_sentiments("afinn")

## # A tibble: 2,477 x 2
##    word       value
##    <chr>      <dbl>
##  1 abandon       -2
##  2 abandoned     -2
##  3 abandons      -2
##  4 abducted      -2
##  5 abduction     -2
##  6 abductions    -2
##  7 abhor         -3
##  8 abhorred      -3
##  9 abhorrent     -3
## 10 abhors        -3
## # ... with 2,467 more rows

get_sentiments("bing")

## # A tibble: 6,786 x 2
##    word        sentiment
##    <chr>       <chr>    
##  1 2-faces     negative 
##  2 abnormal    negative 
##  3 abolish     negative 
##  4 abominable  negative 
##  5 abominably  negative 
##  6 abominate   negative 
##  7 abomination negative 
##  8 abort       negative 
##  9 aborted     negative 
## 10 aborts      negative 
## # ... with 6,776 more rows

get_sentiments("nrc")

## # A tibble: 13,901 x 2
##    word        sentiment
##    <chr>       <chr>    
##  1 abacus      trust    
##  2 abandon     fear     
##  3 abandon     negative 
##  4 abandon     sadness  
##  5 abandoned   anger    
##  6 abandoned   fear     
##  7 abandoned   negative 
##  8 abandoned   sadness  
##  9 abandonment anger    
## 10 abandonment fear     
## # ... with 13,891 more rows
…
